%YAML 1.1
%TAG !u! tag:unity3d.com,2011:
--- !u!1 &4974667342042123931
GameObject:
  m_ObjectHideFlags: 0
  m_CorrespondingSourceObject: {fileID: 0}
  m_PrefabInstance: {fileID: 0}
  m_PrefabAsset: {fileID: 0}
  serializedVersion: 6
  m_Component:
  - component: {fileID: 4974667342042123929}
  - component: {fileID: 4974667342042123928}
  m_Layer: 0
  m_Name: MangerGame
  m_TagString: Untagged
  m_Icon: {fileID: 0}
  m_NavMeshLayer: 0
  m_StaticEditorFlags: 0
  m_IsActive: 1
--- !u!4 &4974667342042123929
Transform:
  m_ObjectHideFlags: 0
  m_CorrespondingSourceObject: {fileID: 0}
  m_PrefabInstance: {fileID: 0}
  m_PrefabAsset: {fileID: 0}
  m_GameObject: {fileID: 4974667342042123931}
  m_LocalRotation: {x: 0, y: 0, z: 0, w: 1}
  m_LocalPosition: {x: 587.737, y: 398.20737, z: -6.71875}
  m_LocalScale: {x: 1, y: 1, z: 1}
  m_Children: []
  m_Father: {fileID: 0}
  m_RootOrder: 0
  m_LocalEulerAnglesHint: {x: 0, y: 0, z: 0}
--- !u!114 &4974667342042123928
MonoBehaviour:
  m_ObjectHideFlags: 0
  m_CorrespondingSourceObject: {fileID: 0}
  m_PrefabInstance: {fileID: 0}
  m_PrefabAsset: {fileID: 0}
  m_GameObject: {fileID: 4974667342042123931}
  m_Enabled: 1
  m_EditorHideFlags: 0
  m_Script: {fileID: 11500000, guid: 23c5098139805bf44960ca7036f3693d, type: 3}
  m_Name: 
  m_EditorClassIdentifier: 
  gameSessionTime: 0
  enemySessionTime: 0
  playerScore: 0
  minValueSecondsGameSession: 30
  maxValueSecondsGameSession: 180
  minValueSecondsEnemySpawn: 5
  maxValueSecondsEnemySpawn: 20
