%YAML 1.1
%TAG !u! tag:unity3d.com,2011:
--- !u!74 &7400000
AnimationClip:
  m_ObjectHideFlags: 0
  m_CorrespondingSourceObject: {fileID: 0}
  m_PrefabInstance: {fileID: 0}
  m_PrefabAsset: {fileID: 0}
  m_Name: ChaserDestroyedAnimation
  serializedVersion: 6
  m_Legacy: 0
  m_Compressed: 0
  m_UseHighQualityCurve: 1
  m_RotationCurves: []
  m_CompressedRotationCurves: []
  m_EulerCurves: []
  m_PositionCurves: []
  m_ScaleCurves: []
  m_FloatCurves: []
  m_PPtrCurves:
  - curve:
    - time: 0
      value: {fileID: 21300000, guid: 20b4ce799ae77004b91325820fa764dd, type: 3}
    - time: 0.23809524
      value: {fileID: 21300000, guid: 20b4ce799ae77004b91325820fa764dd, type: 3}
    - time: 0.42857143
      value: {fileID: 21300000, guid: b1affc0ae9d73bf4392b69c464d3df07, type: 3}
    attribute: m_Sprite
    path: 
    classID: 212
    script: {fileID: 0}
  - curve:
    - time: 0
      value: {fileID: 21300000, guid: dba965f75dcfcdf41ace747c399f87ae, type: 3}
    - time: 0.0952381
      value: {fileID: 21300000, guid: 4acf5afc9bc99c843bafe9aac7253c39, type: 3}
    - time: 0.1904762
      value: {fileID: 21300000, guid: 2d4e9a3c8c8df3d488a49653c4163621, type: 3}
    - time: 0.2857143
      value: {fileID: 21300000, guid: 4acf5afc9bc99c843bafe9aac7253c39, type: 3}
    - time: 0.3809524
      value: {fileID: 21300000, guid: dba965f75dcfcdf41ace747c399f87ae, type: 3}
    - time: 0.42857143
      value: {fileID: 0}
    attribute: m_Sprite
    path: Explosion
    classID: 212
    script: {fileID: 0}
  - curve:
    - time: 0
      value: {fileID: 0}
    - time: 0.42857143
      value: {fileID: 21300000, guid: a067d3eca621a6c42ba86eaa3a498b58, type: 3}
    - time: 0.61904764
      value: {fileID: 21300000, guid: 9e5e502c683c2f84fafb1be29189c3f9, type: 3}
    - time: 0.8095238
      value: {fileID: 21300000, guid: a067d3eca621a6c42ba86eaa3a498b58, type: 3}
    - time: 1
      value: {fileID: 21300000, guid: 9e5e502c683c2f84fafb1be29189c3f9, type: 3}
    attribute: m_Sprite
    path: FireDestroyed2
    classID: 212
    script: {fileID: 0}
  - curve:
    - time: 0
      value: {fileID: 0}
    - time: 0.42857143
      value: {fileID: 21300000, guid: a067d3eca621a6c42ba86eaa3a498b58, type: 3}
    - time: 0.61904764
      value: {fileID: 21300000, guid: 9e5e502c683c2f84fafb1be29189c3f9, type: 3}
    - time: 0.8095238
      value: {fileID: 21300000, guid: a067d3eca621a6c42ba86eaa3a498b58, type: 3}
    - time: 1
      value: {fileID: 21300000, guid: 9e5e502c683c2f84fafb1be29189c3f9, type: 3}
    attribute: m_Sprite
    path: FireDestroyed1
    classID: 212
    script: {fileID: 0}
  m_SampleRate: 21
  m_WrapMode: 0
  m_Bounds:
    m_Center: {x: 0, y: 0, z: 0}
    m_Extent: {x: 0, y: 0, z: 0}
  m_ClipBindingConstant:
    genericBindings:
    - serializedVersion: 2
      path: 0
      attribute: 0
      script: {fileID: 0}
      typeID: 212
      customType: 23
      isPPtrCurve: 1
    - serializedVersion: 2
      path: 4083606463
      attribute: 0
      script: {fileID: 0}
      typeID: 212
      customType: 23
      isPPtrCurve: 1
    - serializedVersion: 2
      path: 2146198773
      attribute: 0
      script: {fileID: 0}
      typeID: 212
      customType: 23
      isPPtrCurve: 1
    - serializedVersion: 2
      path: 3873781071
      attribute: 0
      script: {fileID: 0}
      typeID: 212
      customType: 23
      isPPtrCurve: 1
    pptrCurveMapping:
    - {fileID: 21300000, guid: 20b4ce799ae77004b91325820fa764dd, type: 3}
    - {fileID: 21300000, guid: 20b4ce799ae77004b91325820fa764dd, type: 3}
    - {fileID: 21300000, guid: b1affc0ae9d73bf4392b69c464d3df07, type: 3}
    - {fileID: 21300000, guid: dba965f75dcfcdf41ace747c399f87ae, type: 3}
    - {fileID: 21300000, guid: 4acf5afc9bc99c843bafe9aac7253c39, type: 3}
    - {fileID: 21300000, guid: 2d4e9a3c8c8df3d488a49653c4163621, type: 3}
    - {fileID: 21300000, guid: 4acf5afc9bc99c843bafe9aac7253c39, type: 3}
    - {fileID: 21300000, guid: dba965f75dcfcdf41ace747c399f87ae, type: 3}
    - {fileID: 0}
    - {fileID: 0}
    - {fileID: 21300000, guid: a067d3eca621a6c42ba86eaa3a498b58, type: 3}
    - {fileID: 21300000, guid: 9e5e502c683c2f84fafb1be29189c3f9, type: 3}
    - {fileID: 21300000, guid: a067d3eca621a6c42ba86eaa3a498b58, type: 3}
    - {fileID: 21300000, guid: 9e5e502c683c2f84fafb1be29189c3f9, type: 3}
    - {fileID: 0}
    - {fileID: 21300000, guid: a067d3eca621a6c42ba86eaa3a498b58, type: 3}
    - {fileID: 21300000, guid: 9e5e502c683c2f84fafb1be29189c3f9, type: 3}
    - {fileID: 21300000, guid: a067d3eca621a6c42ba86eaa3a498b58, type: 3}
    - {fileID: 21300000, guid: 9e5e502c683c2f84fafb1be29189c3f9, type: 3}
  m_AnimationClipSettings:
    serializedVersion: 2
    m_AdditiveReferencePoseClip: {fileID: 0}
    m_AdditiveReferencePoseTime: 0
    m_StartTime: 0
    m_StopTime: 1.0476191
    m_OrientationOffsetY: 0
    m_Level: 0
    m_CycleOffset: 0
    m_HasAdditiveReferencePose: 0
    m_LoopTime: 0
    m_LoopBlend: 0
    m_LoopBlendOrientation: 0
    m_LoopBlendPositionY: 0
    m_LoopBlendPositionXZ: 0
    m_KeepOriginalOrientation: 0
    m_KeepOriginalPositionY: 1
    m_KeepOriginalPositionXZ: 0
    m_HeightFromFeet: 0
    m_Mirror: 0
  m_EditorCurves: []
  m_EulerEditorCurves: []
  m_HasGenericRootTransform: 0
  m_HasMotionFloatCurves: 0
  m_Events:
  - time: 1
    functionName: DestroyShip
    data: 
    objectReferenceParameter: {fileID: 0}
    floatParameter: 0
    intParameter: 0
    messageOptions: 0
